soc_lab2/simulation/qsim/soc_lab2.msim.vcd
$comment
	File created using the following command:
		vcd file soc_lab2.msim.vcd -direction
$end
$date
	Sun Feb 12 16:09:55 2017
$end
$version
	ModelSim Version 10.4d
$end
$timescale
	1ps
$end

$scope module block1_vlg_vec_tst $end
$var reg 1 ! pin_name1 $end
$var reg 1 " pin_name2 $end
$var wire 1 # pin_name3 $end
$var wire 1 $ pin_name4 $end

$scope module i1 $end
$var wire 1 % gnd $end
$var wire 1 & vcc $end
$var wire 1 ' unknown $end
$var tri1 1 ( devclrn $end
$var tri1 1 ) devpor $end
$var tri1 1 * devoe $end
$var wire 1 + ~QUARTUS_CREATED_GND~I_combout $end
$var wire 1 , ~QUARTUS_CREATED_UNVM~~busy $end
$var wire 1 - ~QUARTUS_CREATED_ADC1~~eoc $end
$var wire 1 . ~QUARTUS_CREATED_ADC2~~eoc $end
$var wire 1 / pin_name3~output_o $end
$var wire 1 0 pin_name4~output_o $end
$var wire 1 1 pin_name2~input_o $end
$var wire 1 2 pin_name1~input_o $end
$var wire 1 3 inst|f~0_combout $end
$var wire 1 4 inst2|Add0~0_combout $end
$upscope $end
$upscope $end
$enddefinitions $end
#0
$dumpvars
0!
0"
1#
0$
0%
1&
x'
1(
1)
1*
0+
z,
z-
z.
1/
00
01
02
03
04
$end
#5000
1!
12
13
14
10
0/
0#
1$
#10000
1"
0!
02
11
03
1/
1#
#15000
1!
12
#20000
0"
0!
02
01
04
00
0$
#25000
1!
12
13
14
10
0/
0#
1$
#30000
1"
0!
02
11
03
1/
1#
#35000
1!
12
#40000
0"
0!
02
01
04
00
0$
#45000
1!
12
13
14
10
0/
0#
1$
#50000
1"
0!
02
11
03
1/
1#
#55000
1!
12
#60000
0"
0!
02
01
04
00
0$
#65000
1!
12
13
14
10
0/
0#
1$
#70000
1"
0!
02
11
03
1/
1#
#75000
1!
12
#80000
0"
0!
02
01
04
00
0$
#85000
1!
12
13
14
10
0/
0#
1$
#90000
1"
0!
02
11
03
1/
1#
#95000
1!
12
#100000
0"
0!
02
01
04
00
0$
#105000
1!
12
13
14
10
0/
0#
1$
#110000
1"
0!
02
11
03
1/
1#
#115000
1!
12
#120000
0"
0!
02
01
04
00
0$
#125000
1!
12
13
14
10
0/
0#
1$
#130000
1"
0!
02
11
03
1/
1#
#135000
1!
12
#140000
0"
0!
02
01
04
00
0$
#145000
1!
12
13
14
10
0/
0#
1$
#150000
1"
0!
02
11
03
1/
1#
#155000
1!
12
#160000
0"
0!
02
01
04
00
0$
#165000
1!
12
13
14
10
0/
0#
1$
#170000
1"
0!
02
11
03
1/
1#
#175000
1!
12
#180000
0"
0!
02
01
04
00
0$
#185000
1!
12
13
14
10
0/
0#
1$
#190000
1"
0!
02
11
03
1/
1#
#195000
1!
12
#200000
0"
0!
02
01
04
00
0$
#205000
1!
12
13
14
10
0/
0#
1$
#210000
1"
0!
02
11
03
1/
1#
#215000
1!
12
#220000
0"
0!
02
01
04
00
0$
#225000
1!
12
13
14
10
0/
0#
1$
#230000
1"
0!
02
11
03
1/
1#
#235000
1!
12
#240000
0"
0!
02
01
04
00
0$
#245000
1!
12
13
14
10
0/
0#
1$
#250000
1"
0!
02
11
03
1/
1#
#255000
1!
12
#260000
0"
0!
02
01
04
00
0$
#265000
1!
12
13
14
10
0/
0#
1$
#270000
1"
0!
02
11
03
1/
1#
#275000
1!
12
#280000
0"
0!
02
01
04
00
0$
#285000
1!
12
13
14
10
0/
0#
1$
#290000
1"
0!
02
11
03
1/
1#
#295000
1!
12
#300000
0"
0!
02
01
04
00
0$
#305000
1!
12
13
14
10
0/
0#
1$
#310000
1"
0!
02
11
03
1/
1#
#315000
1!
12
#320000
0"
0!
02
01
04
00
0$
#325000
1!
12
13
14
10
0/
0#
1$
#330000
1"
0!
02
11
03
1/
1#
#335000
1!
12
#340000
0"
0!
02
01
04
00
0$
#345000
1!
12
13
14
10
0/
0#
1$
#350000
1"
0!
02
11
03
1/
1#
#355000
1!
12
#360000
0"
0!
02
01
04
00
0$
#365000
1!
12
13
14
10
0/
0#
1$
#370000
1"
0!
02
11
03
1/
1#
#375000
1!
12
#380000
0"
0!
02
01
04
00
0$
#385000
1!
12
13
14
10
0/
0#
1$
#390000
1"
0!
02
11
03
1/
1#
#395000
1!
12
#400000
0"
0!
02
01
04
00
0$
#405000
1!
12
13
14
10
0/
0#
1$
#410000
1"
0!
02
11
03
1/
1#
#415000
1!
12
#420000
0"
0!
02
01
04
00
0$
#425000
1!
12
13
14
10
0/
0#
1$
#430000
1"
0!
02
11
03
1/
1#
#435000
1!
12
#440000
0"
0!
02
01
04
00
0$
#445000
1!
12
13
14
10
0/
0#
1$
#450000
1"
0!
02
11
03
1/
1#
#455000
1!
12
#460000
0"
0!
02
01
04
00
0$
#465000
1!
12
13
14
10
0/
0#
1$
#470000
1"
0!
02
11
03
1/
1#
#475000
1!
12
#480000
0"
0!
02
01
04
00
0$
#485000
1!
12
13
14
10
0/
0#
1$
#490000
1"
0!
02
11
03
1/
1#
#495000
1!
12
#500000
0"
0!
02
01
04
00
0$
#505000
1!
12
13
14
10
0/
0#
1$
#510000
1"
0!
02
11
03
1/
1#
#515000
1!
12
#520000
0"
0!
02
01
04
00
0$
#525000
1!
12
13
14
10
0/
0#
1$
#530000
1"
0!
02
11
03
1/
1#
#535000
1!
12
#540000
0"
0!
02
01
04
00
0$
#545000
1!
12
13
14
10
0/
0#
1$
#550000
1"
0!
02
11
03
1/
1#
#555000
1!
12
#560000
0"
0!
02
01
04
00
0$
#565000
1!
12
13
14
10
0/
0#
1$
#570000
1"
0!
02
11
03
1/
1#
#575000
1!
12
#580000
0"
0!
02
01
04
00
0$
#585000
1!
12
13
14
10
0/
0#
1$
#590000
1"
0!
02
11
03
1/
1#
#595000
1!
12
#600000
0"
0!
02
01
04
00
0$
#605000
1!
12
13
14
10
0/
0#
1$
#610000
1"
0!
02
11
03
1/
1#
#615000
1!
12
#620000
0"
0!
02
01
04
00
0$
#625000
1!
12
13
14
10
0/
0#
1$
#630000
1"
0!
02
11
03
1/
1#
#635000
1!
12
#640000
0"
0!
02
01
04
00
0$
#645000
1!
12
13
14
10
0/
0#
1$
#650000
1"
0!
02
11
03
1/
1#
#655000
1!
12
#660000
0"
0!
02
01
04
00
0$
#665000
1!
12
13
14
10
0/
0#
1$
#670000
1"
0!
02
11
03
1/
1#
#675000
1!
12
#680000
0"
0!
02
01
04
00
0$
#685000
1!
12
13
14
10
0/
0#
1$
#690000
1"
0!
02
11
03
1/
1#
#695000
1!
12
#700000
0"
0!
02
01
04
00
0$
#705000
1!
12
13
14
10
0/
0#
1$
#710000
1"
0!
02
11
03
1/
1#
#715000
1!
12
#720000
0"
0!
02
01
04
00
0$
#725000
1!
12
13
14
10
0/
0#
1$
#730000
1"
0!
02
11
03
1/
1#
#735000
1!
12
#740000
0"
0!
02
01
04
00
0$
#745000
1!
12
13
14
10
0/
0#
1$
#750000
1"
0!
02
11
03
1/
1#
#755000
1!
12
#760000
0"
0!
02
01
04
00
0$
#765000
1!
12
13
14
10
0/
0#
1$
#770000
1"
0!
02
11
03
1/
1#
#775000
1!
12
#780000
0"
0!
02
01
04
00
0$
#785000
1!
12
13
14
10
0/
0#
1$
#790000
1"
0!
02
11
03
1/
1#
#795000
1!
12
#800000
0"
0!
02
01
04
00
0$
#805000
1!
12
13
14
10
0/
0#
1$
#810000
1"
0!
02
11
03
1/
1#
#815000
1!
12
#820000
0"
0!
02
01
04
00
0$
#825000
1!
12
13
14
10
0/
0#
1$
#830000
1"
0!
02
11
03
1/
1#
#835000
1!
12
#840000
0"
0!
02
01
04
00
0$
#845000
1!
12
13
14
10
0/
0#
1$
#850000
1"
0!
02
11
03
1/
1#
#855000
1!
12
#860000
0"
0!
02
01
04
00
0$
#865000
1!
12
13
14
10
0/
0#
1$
#870000
1"
0!
02
11
03
1/
1#
#875000
1!
12
#880000
0"
0!
02
01
04
00
0$
#885000
1!
12
13
14
10
0/
0#
1$
#890000
1"
0!
02
11
03
1/
1#
#895000
1!
12
#900000
0"
0!
02
01
04
00
0$
#905000
1!
12
13
14
10
0/
0#
1$
#910000
1"
0!
02
11
03
1/
1#
#915000
1!
12
#920000
0"
0!
02
01
04
00
0$
#925000
1!
12
13
14
10
0/
0#
1$
#930000
1"
0!
02
11
03
1/
1#
#935000
1!
12
#940000
0"
0!
02
01
04
00
0$
#945000
1!
12
13
14
10
0/
0#
1$
#950000
1"
0!
02
11
03
1/
1#
#955000
1!
12
#960000
0"
0!
02
01
04
00
0$
#965000
1!
12
13
14
10
0/
0#
1$
#970000
1"
0!
02
11
03
1/
1#
#975000
1!
12
#980000
0"
0!
02
01
04
00
0$
#985000
1!
12
13
14
10
0/
0#
1$
#990000
1"
0!
02
11
03
1/
1#
#995000
1!
12
