lab2/simulation/qsim/lab2.msim.vcd
$comment
	File created using the following command:
		vcd file lab2.msim.vcd -direction
$end
$date
	Wed Feb 15 18:15:37 2017
$end
$version
	ModelSim Version 10.4d
$end
$timescale
	1ps
$end

$scope module lab2_vlg_vec_tst $end
$var reg 1 ! pin_name1 $end
$var reg 1 " pin_name2 $end
$var reg 1 # pin_name3 $end
$var reg 1 $ pin_name4 $end
$var wire 1 % pin_name5 $end
$var wire 1 & pin_name6 $end

$scope module i1 $end
$var wire 1 ' gnd $end
$var wire 1 ( vcc $end
$var wire 1 ) unknown $end
$var tri1 1 * devclrn $end
$var tri1 1 + devpor $end
$var tri1 1 , devoe $end
$var wire 1 - ~QUARTUS_CREATED_GND~I_combout $end
$var wire 1 . ~QUARTUS_CREATED_UNVM~~busy $end
$var wire 1 / ~QUARTUS_CREATED_ADC1~~eoc $end
$var wire 1 0 ~QUARTUS_CREATED_ADC2~~eoc $end
$var wire 1 1 pin_name5~output_o $end
$var wire 1 2 pin_name6~output_o $end
$var wire 1 3 pin_name3~input_o $end
$var wire 1 4 pin_name4~input_o $end
$var wire 1 5 pin_name2~input_o $end
$var wire 1 6 pin_name1~input_o $end
$var wire 1 7 inst~0_combout $end
$upscope $end
$upscope $end
$enddefinitions $end
#0
$dumpvars
0!
0"
0#
0$
1%
1&
0'
1(
x)
1*
1+
1,
0-
z.
z/
z0
11
12
03
04
05
06
07
$end
#5000
1!
16
#10000
1"
0!
06
15
#15000
1!
16
17
02
01
0%
0&
#20000
1#
0"
0!
06
05
13
#25000
1!
16
#30000
1"
0!
06
15
#35000
1!
16
#40000
1$
0#
0"
0!
06
05
03
14
07
12
11
1%
1&
#45000
1!
16
17
02
01
0%
0&
#50000
1"
0!
06
15
#55000
1!
16
07
12
11
1%
1&
#60000
1#
0"
0!
06
05
13
#65000
1!
16
#70000
1"
0!
06
15
#75000
1!
16
17
02
01
0%
0&
#80000
0$
0#
0"
0!
06
05
03
04
07
12
11
1%
1&
#85000
1!
16
#90000
1"
0!
06
15
#95000
1!
16
17
02
01
0%
0&
#100000
1#
0"
0!
06
05
13
#105000
1!
16
#110000
1"
0!
06
15
#115000
1!
16
#120000
1$
0#
0"
0!
06
05
03
14
07
12
11
1%
1&
#125000
1!
16
17
02
01
0%
0&
#130000
1"
0!
06
15
#135000
1!
16
07
12
11
1%
1&
#140000
1#
0"
0!
06
05
13
#145000
1!
16
#150000
1"
0!
06
15
#155000
1!
16
17
02
01
0%
0&
#160000
0$
0#
0"
0!
06
05
03
04
07
12
11
1%
1&
#165000
1!
16
#170000
1"
0!
06
15
#175000
1!
16
17
02
01
0%
0&
#180000
1#
0"
0!
06
05
13
#185000
1!
16
#190000
1"
0!
06
15
#195000
1!
16
#200000
1$
0#
0"
0!
06
05
03
14
07
12
11
1%
1&
#205000
1!
16
17
02
01
0%
0&
#210000
1"
0!
06
15
#215000
1!
16
07
12
11
1%
1&
#220000
1#
0"
0!
06
05
13
#225000
1!
16
#230000
1"
0!
06
15
#235000
1!
16
17
02
01
0%
0&
#240000
0$
0#
0"
0!
06
05
03
04
07
12
11
1%
1&
#245000
1!
16
#250000
1"
0!
06
15
#255000
1!
16
17
02
01
0%
0&
#260000
1#
0"
0!
06
05
13
#265000
1!
16
#270000
1"
0!
06
15
#275000
1!
16
#280000
1$
0#
0"
0!
06
05
03
14
07
12
11
1%
1&
#285000
1!
16
17
02
01
0%
0&
#290000
1"
0!
06
15
#295000
1!
16
07
12
11
1%
1&
#300000
1#
0"
0!
06
05
13
#305000
1!
16
#310000
1"
0!
06
15
#315000
1!
16
17
02
01
0%
0&
#320000
0$
0#
0"
0!
06
05
03
04
07
12
11
1%
1&
#325000
1!
16
#330000
1"
0!
06
15
#335000
1!
16
17
02
01
0%
0&
#340000
1#
0"
0!
06
05
13
#345000
1!
16
#350000
1"
0!
06
15
#355000
1!
16
#360000
1$
0#
0"
0!
06
05
03
14
07
12
11
1%
1&
#365000
1!
16
17
02
01
0%
0&
#370000
1"
0!
06
15
#375000
1!
16
07
12
11
1%
1&
#380000
1#
0"
0!
06
05
13
#385000
1!
16
#390000
1"
0!
06
15
#395000
1!
16
17
02
01
0%
0&
#400000
0$
0#
0"
0!
06
05
03
04
07
12
11
1%
1&
#405000
1!
16
#410000
1"
0!
06
15
#415000
1!
16
17
02
01
0%
0&
#420000
1#
0"
0!
06
05
13
#425000
1!
16
#430000
1"
0!
06
15
#435000
1!
16
#440000
1$
0#
0"
0!
06
05
03
14
07
12
11
1%
1&
#445000
1!
16
17
02
01
0%
0&
#450000
1"
0!
06
15
#455000
1!
16
07
12
11
1%
1&
#460000
1#
0"
0!
06
05
13
#465000
1!
16
#470000
1"
0!
06
15
#475000
1!
16
17
02
01
0%
0&
#480000
0$
0#
0"
0!
06
05
03
04
07
12
11
1%
1&
#485000
1!
16
#490000
1"
0!
06
15
#495000
1!
16
17
02
01
0%
0&
#500000
1#
0"
0!
06
05
13
#505000
1!
16
#510000
1"
0!
06
15
#515000
1!
16
#520000
1$
0#
0"
0!
06
05
03
14
07
12
11
1%
1&
#525000
1!
16
17
02
01
0%
0&
#530000
1"
0!
06
15
#535000
1!
16
07
12
11
1%
1&
#540000
1#
0"
0!
06
05
13
#545000
1!
16
#550000
1"
0!
06
15
#555000
1!
16
17
02
01
0%
0&
#560000
0$
0#
0"
0!
06
05
03
04
07
12
11
1%
1&
#565000
1!
16
#570000
1"
0!
06
15
#575000
1!
16
17
02
01
0%
0&
#580000
1#
0"
0!
06
05
13
#585000
1!
16
#590000
1"
0!
06
15
#595000
1!
16
#600000
1$
0#
0"
0!
06
05
03
14
07
12
11
1%
1&
#605000
1!
16
17
02
01
0%
0&
#610000
1"
0!
06
15
#615000
1!
16
07
12
11
1%
1&
#620000
1#
0"
0!
06
05
13
#625000
1!
16
#630000
1"
0!
06
15
#635000
1!
16
17
02
01
0%
0&
#640000
0$
0#
0"
0!
06
05
03
04
07
12
11
1%
1&
#645000
1!
16
#650000
1"
0!
06
15
#655000
1!
16
17
02
01
0%
0&
#660000
1#
0"
0!
06
05
13
#665000
1!
16
#670000
1"
0!
06
15
#675000
1!
16
#680000
1$
0#
0"
0!
06
05
03
14
07
12
11
1%
1&
#685000
1!
16
17
02
01
0%
0&
#690000
1"
0!
06
15
#695000
1!
16
07
12
11
1%
1&
#700000
1#
0"
0!
06
05
13
#705000
1!
16
#710000
1"
0!
06
15
#715000
1!
16
17
02
01
0%
0&
#720000
0$
0#
0"
0!
06
05
03
04
07
12
11
1%
1&
#725000
1!
16
#730000
1"
0!
06
15
#735000
1!
16
17
02
01
0%
0&
#740000
1#
0"
0!
06
05
13
#745000
1!
16
#750000
1"
0!
06
15
#755000
1!
16
#760000
1$
0#
0"
0!
06
05
03
14
07
12
11
1%
1&
#765000
1!
16
17
02
01
0%
0&
#770000
1"
0!
06
15
#775000
1!
16
07
12
11
1%
1&
#780000
1#
0"
0!
06
05
13
#785000
1!
16
#790000
1"
0!
06
15
#795000
1!
16
17
02
01
0%
0&
#800000
0$
0#
0"
0!
06
05
03
04
07
12
11
1%
1&
#805000
1!
16
#810000
1"
0!
06
15
#815000
1!
16
17
02
01
0%
0&
#820000
1#
0"
0!
06
05
13
#825000
1!
16
#830000
1"
0!
06
15
#835000
1!
16
#840000
1$
0#
0"
0!
06
05
03
14
07
12
11
1%
1&
#845000
1!
16
17
02
01
0%
0&
#850000
1"
0!
06
15
#855000
1!
16
07
12
11
1%
1&
#860000
1#
0"
0!
06
05
13
#865000
1!
16
#870000
1"
0!
06
15
#875000
1!
16
17
02
01
0%
0&
#880000
0$
0#
0"
0!
06
05
03
04
07
12
11
1%
1&
#885000
1!
16
#890000
1"
0!
06
15
#895000
1!
16
17
02
01
0%
0&
#900000
1#
0"
0!
06
05
13
#905000
1!
16
#910000
1"
0!
06
15
#915000
1!
16
#920000
1$
0#
0"
0!
06
05
03
14
07
12
11
1%
1&
#925000
1!
16
17
02
01
0%
0&
#930000
1"
0!
06
15
#935000
1!
16
07
12
11
1%
1&
#940000
1#
0"
0!
06
05
13
#945000
1!
16
#950000
1"
0!
06
15
#955000
1!
16
17
02
01
0%
0&
#960000
0$
0#
0"
0!
06
05
03
04
07
12
11
1%
1&
#965000
1!
16
#970000
1"
0!
06
15
#975000
1!
16
17
02
01
0%
0&
#980000
1#
0"
0!
06
05
13
#985000
1!
16
#990000
1"
0!
06
15
#995000
1!
16
