lab4_one-digit_sum/simulation/qsim/one_digit_sum.msim.vcd
$comment
	File created using the following command:
		vcd file one_digit_sum.msim.vcd -direction
$end
$date
	Mon Mar 20 11:30:58 2017
$end
$version
	ModelSim Version 10.4d
$end
$timescale
	1ps
$end

$scope module one_digit_sum_vlg_vec_tst $end
$var reg 1 ! a $end
$var reg 1 " b $end
$var reg 1 # p $end
$var wire 1 $ p1 $end
$var wire 1 % s $end

$scope module i1 $end
$var wire 1 & gnd $end
$var wire 1 ' vcc $end
$var wire 1 ( unknown $end
$var tri1 1 ) devclrn $end
$var tri1 1 * devpor $end
$var tri1 1 + devoe $end
$var wire 1 , ~QUARTUS_CREATED_GND~I_combout $end
$var wire 1 - b~input_o $end
$var wire 1 . p~input_o $end
$var wire 1 / a~input_o $end
$var wire 1 0 inst~combout $end
$var wire 1 1 inst4~combout $end
$upscope $end
$upscope $end
$enddefinitions $end
#0
$dumpvars
0!
0"
0#
0$
0%
0&
1'
x(
1)
1*
1+
0,
0-
0.
0/
00
01
$end
#5000
1!
1/
10
1%
#10000
1"
0!
1-
0/
#15000
1!
1/
11
00
0%
1$
#20000
1#
0"
0!
1.
0-
0/
01
10
1%
0$
#25000
1!
1/
11
00
0%
1$
#30000
1"
0!
1-
0/
#35000
1!
1/
10
1%
#40000
0#
0"
0!
0.
0-
0/
01
00
0%
0$
#45000
1!
1/
10
1%
#50000
1"
0!
1-
0/
#55000
1!
1/
11
00
0%
1$
#60000
1#
0"
0!
1.
0-
0/
01
10
1%
0$
#65000
1!
1/
11
00
0%
1$
#70000
1"
0!
1-
0/
#75000
1!
1/
10
1%
#80000
0#
0"
0!
0.
0-
0/
01
00
0%
0$
#85000
1!
1/
10
1%
#90000
1"
0!
1-
0/
#95000
1!
1/
11
00
0%
1$
#100000
1#
0"
0!
1.
0-
0/
01
10
1%
0$
#105000
1!
1/
11
00
0%
1$
#110000
1"
0!
1-
0/
#115000
1!
1/
10
1%
#120000
0#
0"
0!
0.
0-
0/
01
00
0%
0$
#125000
1!
1/
10
1%
#130000
1"
0!
1-
0/
#135000
1!
1/
11
00
0%
1$
#140000
1#
0"
0!
1.
0-
0/
01
10
1%
0$
#145000
1!
1/
11
00
0%
1$
#150000
1"
0!
1-
0/
#155000
1!
1/
10
1%
#160000
0#
0"
0!
0.
0-
0/
01
00
0%
0$
#165000
1!
1/
10
1%
#170000
1"
0!
1-
0/
#175000
1!
1/
11
00
0%
1$
#180000
1#
0"
0!
1.
0-
0/
01
10
1%
0$
#185000
1!
1/
11
00
0%
1$
#190000
1"
0!
1-
0/
#195000
1!
1/
10
1%
#200000
0#
0"
0!
0.
0-
0/
01
00
0%
0$
#205000
1!
1/
10
1%
#210000
1"
0!
1-
0/
#215000
1!
1/
11
00
0%
1$
#220000
1#
0"
0!
1.
0-
0/
01
10
1%
0$
#225000
1!
1/
11
00
0%
1$
#230000
1"
0!
1-
0/
#235000
1!
1/
10
1%
#240000
0#
0"
0!
0.
0-
0/
01
00
0%
0$
#245000
1!
1/
10
1%
#250000
1"
0!
1-
0/
#255000
1!
1/
11
00
0%
1$
#260000
1#
0"
0!
1.
0-
0/
01
10
1%
0$
#265000
1!
1/
11
00
0%
1$
#270000
1"
0!
1-
0/
#275000
1!
1/
10
1%
#280000
0#
0"
0!
0.
0-
0/
01
00
0%
0$
#285000
1!
1/
10
1%
#290000
1"
0!
1-
0/
#295000
1!
1/
11
00
0%
1$
#300000
1#
0"
0!
1.
0-
0/
01
10
1%
0$
#305000
1!
1/
11
00
0%
1$
#310000
1"
0!
1-
0/
#315000
1!
1/
10
1%
#320000
0#
0"
0!
0.
0-
0/
01
00
0%
0$
#325000
1!
1/
10
1%
#330000
1"
0!
1-
0/
#335000
1!
1/
11
00
0%
1$
#340000
1#
0"
0!
1.
0-
0/
01
10
1%
0$
#345000
1!
1/
11
00
0%
1$
#350000
1"
0!
1-
0/
#355000
1!
1/
10
1%
#360000
0#
0"
0!
0.
0-
0/
01
00
0%
0$
#365000
1!
1/
10
1%
#370000
1"
0!
1-
0/
#375000
1!
1/
11
00
0%
1$
#380000
1#
0"
0!
1.
0-
0/
01
10
1%
0$
#385000
1!
1/
11
00
0%
1$
#390000
1"
0!
1-
0/
#395000
1!
1/
10
1%
#400000
0#
0"
0!
0.
0-
0/
01
00
0%
0$
#405000
1!
1/
10
1%
#410000
1"
0!
1-
0/
#415000
1!
1/
11
00
0%
1$
#420000
1#
0"
0!
1.
0-
0/
01
10
1%
0$
#425000
1!
1/
11
00
0%
1$
#430000
1"
0!
1-
0/
#435000
1!
1/
10
1%
#440000
0#
0"
0!
0.
0-
0/
01
00
0%
0$
#445000
1!
1/
10
1%
#450000
1"
0!
1-
0/
#455000
1!
1/
11
00
0%
1$
#460000
1#
0"
0!
1.
0-
0/
01
10
1%
0$
#465000
1!
1/
11
00
0%
1$
#470000
1"
0!
1-
0/
#475000
1!
1/
10
1%
#480000
0#
0"
0!
0.
0-
0/
01
00
0%
0$
#485000
1!
1/
10
1%
#490000
1"
0!
1-
0/
#495000
1!
1/
11
00
0%
1$
#500000
1#
0"
0!
1.
0-
0/
01
10
1%
0$
#505000
1!
1/
11
00
0%
1$
#510000
1"
0!
1-
0/
#515000
1!
1/
10
1%
#520000
0#
0"
0!
0.
0-
0/
01
00
0%
0$
#525000
1!
1/
10
1%
#530000
1"
0!
1-
0/
#535000
1!
1/
11
00
0%
1$
#540000
1#
0"
0!
1.
0-
0/
01
10
1%
0$
#545000
1!
1/
11
00
0%
1$
#550000
1"
0!
1-
0/
#555000
1!
1/
10
1%
#560000
0#
0"
0!
0.
0-
0/
01
00
0%
0$
#565000
1!
1/
10
1%
#570000
1"
0!
1-
0/
#575000
1!
1/
11
00
0%
1$
#580000
1#
0"
0!
1.
0-
0/
01
10
1%
0$
#585000
1!
1/
11
00
0%
1$
#590000
1"
0!
1-
0/
#595000
1!
1/
10
1%
#600000
0#
0"
0!
0.
0-
0/
01
00
0%
0$
#605000
1!
1/
10
1%
#610000
1"
0!
1-
0/
#615000
1!
1/
11
00
0%
1$
#620000
1#
0"
0!
1.
0-
0/
01
10
1%
0$
#625000
1!
1/
11
00
0%
1$
#630000
1"
0!
1-
0/
#635000
1!
1/
10
1%
#640000
0#
0"
0!
0.
0-
0/
01
00
0%
0$
#645000
1!
1/
10
1%
#650000
1"
0!
1-
0/
#655000
1!
1/
11
00
0%
1$
#660000
1#
0"
0!
1.
0-
0/
01
10
1%
0$
#665000
1!
1/
11
00
0%
1$
#670000
1"
0!
1-
0/
#675000
1!
1/
10
1%
#680000
0#
0"
0!
0.
0-
0/
01
00
0%
0$
#685000
1!
1/
10
1%
#690000
1"
0!
1-
0/
#695000
1!
1/
11
00
0%
1$
#700000
1#
0"
0!
1.
0-
0/
01
10
1%
0$
#705000
1!
1/
11
00
0%
1$
#710000
1"
0!
1-
0/
#715000
1!
1/
10
1%
#720000
0#
0"
0!
0.
0-
0/
01
00
0%
0$
#725000
1!
1/
10
1%
#730000
1"
0!
1-
0/
#735000
1!
1/
11
00
0%
1$
#740000
1#
0"
0!
1.
0-
0/
01
10
1%
0$
#745000
1!
1/
11
00
0%
1$
#750000
1"
0!
1-
0/
#755000
1!
1/
10
1%
#760000
0#
0"
0!
0.
0-
0/
01
00
0%
0$
#765000
1!
1/
10
1%
#770000
1"
0!
1-
0/
#775000
1!
1/
11
00
0%
1$
#780000
1#
0"
0!
1.
0-
0/
01
10
1%
0$
#785000
1!
1/
11
00
0%
1$
#790000
1"
0!
1-
0/
#795000
1!
1/
10
1%
#800000
0#
0"
0!
0.
0-
0/
01
00
0%
0$
#805000
1!
1/
10
1%
#810000
1"
0!
1-
0/
#815000
1!
1/
11
00
0%
1$
#820000
1#
0"
0!
1.
0-
0/
01
10
1%
0$
#825000
1!
1/
11
00
0%
1$
#830000
1"
0!
1-
0/
#835000
1!
1/
10
1%
#840000
0#
0"
0!
0.
0-
0/
01
00
0%
0$
#845000
1!
1/
10
1%
#850000
1"
0!
1-
0/
#855000
1!
1/
11
00
0%
1$
#860000
1#
0"
0!
1.
0-
0/
01
10
1%
0$
#865000
1!
1/
11
00
0%
1$
#870000
1"
0!
1-
0/
#875000
1!
1/
10
1%
#880000
0#
0"
0!
0.
0-
0/
01
00
0%
0$
#885000
1!
1/
10
1%
#890000
1"
0!
1-
0/
#895000
1!
1/
11
00
0%
1$
#900000
1#
0"
0!
1.
0-
0/
01
10
1%
0$
#905000
1!
1/
11
00
0%
1$
#910000
1"
0!
1-
0/
#915000
1!
1/
10
1%
#920000
0#
0"
0!
0.
0-
0/
01
00
0%
0$
#925000
1!
1/
10
1%
#930000
1"
0!
1-
0/
#935000
1!
1/
11
00
0%
1$
#940000
1#
0"
0!
1.
0-
0/
01
10
1%
0$
#945000
1!
1/
11
00
0%
1$
#950000
1"
0!
1-
0/
#955000
1!
1/
10
1%
#960000
0#
0"
0!
0.
0-
0/
01
00
0%
0$
#965000
1!
1/
10
1%
#970000
1"
0!
1-
0/
#975000
1!
1/
11
00
0%
1$
#980000
1#
0"
0!
1.
0-
0/
01
10
1%
0$
#985000
1!
1/
11
00
0%
1$
#990000
1"
0!
1-
0/
#995000
1!
1/
10
1%
