lab3/simulation/qsim/lab3.msim.vcd
$comment
	File created using the following command:
		vcd file lab3.msim.vcd -direction
$end
$date
	Tue Mar  7 12:47:36 2017
$end
$version
	ModelSim Version 10.4d
$end
$timescale
	1ps
$end

$scope module lab3_vlg_vec_tst $end
$var reg 1 ! a0 $end
$var reg 1 " a1 $end
$var reg 1 # a2 $end
$var reg 1 $ a3 $end
$var reg 1 % a4 $end
$var reg 1 & a5 $end
$var reg 1 ' a6 $end
$var reg 1 ( a7 $end
$var reg 1 ) a8 $end
$var reg 1 * a9 $end
$var reg 1 + a10 $end
$var reg 1 , a11 $end
$var wire 1 - pin_name1 $end

$scope module i1 $end
$var wire 1 . gnd $end
$var wire 1 / vcc $end
$var wire 1 0 unknown $end
$var tri1 1 1 devclrn $end
$var tri1 1 2 devpor $end
$var tri1 1 3 devoe $end
$var wire 1 4 ~QUARTUS_CREATED_GND~I_combout $end
$var wire 1 5 a9~input_o $end
$var wire 1 6 a10~input_o $end
$var wire 1 7 a11~input_o $end
$var wire 1 8 a7~input_o $end
$var wire 1 9 a8~input_o $end
$var wire 1 : a4~input_o $end
$var wire 1 ; inst2~1_combout $end
$var wire 1 < a2~input_o $end
$var wire 1 = a1~input_o $end
$var wire 1 > a3~input_o $end
$var wire 1 ? a0~input_o $end
$var wire 1 @ inst2~0_combout $end
$var wire 1 A a5~input_o $end
$var wire 1 B a6~input_o $end
$var wire 1 C inst2~combout $end
$upscope $end
$upscope $end
$enddefinitions $end
#0
$dumpvars
0!
0"
1#
1$
1%
1&
0'
0(
0)
0*
0+
0,
0-
0.
1/
x0
11
12
13
04
05
06
07
08
09
1:
0;
1<
0=
1>
0?
1@
1A
0B
0C
$end
#10000
1,
17
#20000
1+
0,
16
07
#30000
1,
17
#40000
1*
0+
0,
15
06
07
#50000
1,
17
#60000
1+
0,
16
07
#70000
1,
17
#80000
1)
0*
0+
0,
19
05
06
07
1;
1C
1-
#90000
1,
17
#100000
1+
0,
16
07
0;
0C
0-
#110000
1,
17
#120000
1*
0+
0,
15
06
07
1;
1C
1-
#130000
1,
17
#140000
1+
0,
16
07
#150000
1,
17
0;
0C
0-
#160000
1(
0)
0*
0+
0,
18
09
05
06
07
#170000
1,
17
#180000
1+
0,
16
07
#190000
1,
17
#200000
1*
0+
0,
15
06
07
#210000
1,
17
#220000
1+
0,
16
07
#230000
1,
17
#240000
1)
0*
0+
0,
19
05
06
07
#250000
1,
17
#260000
1+
0,
16
07
#270000
1,
17
#280000
1*
0+
0,
15
06
07
#290000
1,
17
#300000
1+
0,
16
07
#310000
1,
17
#320000
1'
0(
0)
0*
0+
0,
1B
08
09
05
06
07
#330000
1,
17
#340000
1+
0,
16
07
#350000
1,
17
#360000
1*
0+
0,
15
06
07
#370000
1,
17
#380000
1+
0,
16
07
#390000
1,
17
#400000
1)
0*
0+
0,
19
05
06
07
1;
#410000
1,
17
#420000
1+
0,
16
07
0;
#430000
1,
17
#440000
1*
0+
0,
15
06
07
1;
#450000
1,
17
#460000
1+
0,
16
07
#470000
1,
17
0;
#480000
1(
0)
0*
0+
0,
18
09
05
06
07
#490000
1,
17
#500000
1+
0,
16
07
#510000
1,
17
#520000
1*
0+
0,
15
06
07
#530000
1,
17
#540000
1+
0,
16
07
#550000
1,
17
#560000
1)
0*
0+
0,
19
05
06
07
#570000
1,
17
#580000
1+
0,
16
07
#590000
1,
17
#600000
1*
0+
0,
15
06
07
#610000
1,
17
#620000
1+
0,
16
07
#630000
1,
17
#640000
1"
0#
0$
0%
0&
0'
0(
0)
0*
0+
0,
1=
0<
0>
0:
0A
0B
08
09
05
06
07
0@
#650000
1,
17
#660000
1+
0,
16
07
#670000
1,
17
#680000
1*
0+
0,
15
06
07
#690000
1,
17
#700000
1+
0,
16
07
#710000
1,
17
#720000
1)
0*
0+
0,
19
05
06
07
#730000
1,
17
#740000
1+
0,
16
07
#750000
1,
17
#760000
1*
0+
0,
15
06
07
#770000
1,
17
#780000
1+
0,
16
07
#790000
1,
17
#800000
1(
0)
0*
0+
0,
18
09
05
06
07
#810000
1,
17
#820000
1+
0,
16
07
#830000
1,
17
#840000
1*
0+
0,
15
06
07
#850000
1,
17
#860000
1+
0,
16
07
#870000
1,
17
#880000
1)
0*
0+
0,
19
05
06
07
#890000
1,
17
#900000
1+
0,
16
07
#910000
1,
17
#920000
1*
0+
0,
15
06
07
#930000
1,
17
#940000
1+
0,
16
07
#950000
1,
17
#960000
1'
0(
0)
0*
0+
0,
1B
08
09
05
06
07
#970000
1,
17
#980000
1+
0,
16
07
#990000
1,
17
