lab4_four-digit_sum/simulation/qsim/four_digit_sum.msim.vcd
$comment
	File created using the following command:
		vcd file four_digit_sum.msim.vcd -direction
$end
$date
	Mon Mar 20 12:04:03 2017
$end
$version
	ModelSim Version 10.4d
$end
$timescale
	1ps
$end

$scope module four_digit_sum_vlg_vec_tst $end
$var reg 1 ! a0 $end
$var reg 1 " a1 $end
$var reg 1 # a2 $end
$var reg 1 $ a3 $end
$var reg 1 % b0 $end
$var reg 1 & b1 $end
$var reg 1 ' b2 $end
$var reg 1 ( b3 $end
$var reg 1 ) p0 $end
$var wire 1 * p3 $end
$var wire 1 + s0 $end
$var wire 1 , s1 $end
$var wire 1 - s2 $end
$var wire 1 . s3 $end

$scope module i1 $end
$var wire 1 / gnd $end
$var wire 1 0 vcc $end
$var wire 1 1 unknown $end
$var tri1 1 2 devclrn $end
$var tri1 1 3 devpor $end
$var tri1 1 4 devoe $end
$var wire 1 5 ~QUARTUS_CREATED_GND~I_combout $end
$var wire 1 6 b0~input_o $end
$var wire 1 7 a0~input_o $end
$var wire 1 8 p0~input_o $end
$var wire 1 9 inst|inst~combout $end
$var wire 1 : a1~input_o $end
$var wire 1 ; b1~input_o $end
$var wire 1 < inst4|inst~combout $end
$var wire 1 = a2~input_o $end
$var wire 1 > inst4|inst4~combout $end
$var wire 1 ? b2~input_o $end
$var wire 1 @ inst5|inst~combout $end
$var wire 1 A b3~input_o $end
$var wire 1 B a3~input_o $end
$var wire 1 C inst6|inst~combout $end
$var wire 1 D inst6|inst4~combout $end
$upscope $end
$upscope $end
$enddefinitions $end
#0
$dumpvars
0!
0"
0#
0$
0%
0&
0'
0(
0)
0*
0+
0,
0-
0.
0/
10
x1
12
13
14
05
06
07
08
09
0:
0;
0<
0=
0>
0?
0@
0A
0B
0C
0D
$end
#10000
1(
1A
1C
1.
#20000
1$
0(
1B
0A
#30000
1(
1A
1D
0C
0.
1*
#40000
1'
0$
0(
1?
0B
0A
0D
1@
1-
0*
#50000
1(
1A
1C
1.
#60000
1$
0(
1B
0A
#70000
1(
1A
1D
0C
0.
1*
#80000
1#
0'
0$
0(
1=
0?
0B
0A
0D
0*
#90000
1(
1A
1C
1.
#100000
1$
0(
1B
0A
#110000
1(
1A
1D
0C
0.
1*
#120000
1'
0$
0(
1?
0B
0A
0D
1C
0@
0-
1.
0*
#130000
1(
1A
1D
0C
0.
1*
#140000
1$
0(
1B
0A
#150000
1(
1A
1C
1.
#160000
1&
0#
0'
0$
0(
1;
0=
0?
0B
0A
0D
0C
1<
1,
0.
0*
#170000
1(
1A
1C
1.
#180000
1$
0(
1B
0A
#190000
1(
1A
1D
0C
0.
1*
#200000
1'
0$
0(
1?
0B
0A
0D
1@
1-
0*
#210000
1(
1A
1C
1.
#220000
1$
0(
1B
0A
#230000
1(
1A
1D
0C
0.
1*
#240000
1#
0'
0$
0(
1=
0?
0B
0A
0D
0*
#250000
1(
1A
1C
1.
#260000
1$
0(
1B
0A
#270000
1(
1A
1D
0C
0.
1*
#280000
1'
0$
0(
1?
0B
0A
0D
1C
0@
0-
1.
0*
#290000
1(
1A
1D
0C
0.
1*
#300000
1$
0(
1B
0A
#310000
1(
1A
1C
1.
#320000
1"
0&
0#
0'
0$
0(
1:
0;
0=
0?
0B
0A
0D
0C
0.
0*
#330000
1(
1A
1C
1.
#340000
1$
0(
1B
0A
#350000
1(
1A
1D
0C
0.
1*
#360000
1'
0$
0(
1?
0B
0A
0D
1@
1-
0*
#370000
1(
1A
1C
1.
#380000
1$
0(
1B
0A
#390000
1(
1A
1D
0C
0.
1*
#400000
1#
0'
0$
0(
1=
0?
0B
0A
0D
0*
#410000
1(
1A
1C
1.
#420000
1$
0(
1B
0A
#430000
1(
1A
1D
0C
0.
1*
#440000
1'
0$
0(
1?
0B
0A
0D
1C
0@
0-
1.
0*
#450000
1(
1A
1D
0C
0.
1*
#460000
1$
0(
1B
0A
#470000
1(
1A
1C
1.
#480000
1&
0#
0'
0$
0(
1;
0=
0?
0B
0A
1>
0D
0C
0<
0,
0.
0*
1@
1-
#490000
1(
1A
1C
1.
#500000
1$
0(
1B
0A
#510000
1(
1A
1D
0C
0.
1*
#520000
1'
0$
0(
1?
0B
0A
0D
1C
0@
0-
1.
0*
#530000
1(
1A
1D
0C
0.
1*
#540000
1$
0(
1B
0A
#550000
1(
1A
1C
1.
#560000
1#
0'
0$
0(
1=
0?
0B
0A
0D
0*
#570000
1(
1A
1D
0C
0.
1*
#580000
1$
0(
1B
0A
#590000
1(
1A
1C
1.
#600000
1'
0$
0(
1?
0B
0A
0D
1@
1-
0*
#610000
1(
1A
1D
0C
0.
1*
#620000
1$
0(
1B
0A
#630000
1(
1A
1C
1.
#640000
1%
0"
0&
0#
0'
0$
0(
16
0:
0;
0=
0?
0B
0A
0>
0D
0C
19
1+
0.
0*
0@
0-
#650000
1(
1A
1C
1.
#660000
1$
0(
1B
0A
#670000
1(
1A
1D
0C
0.
1*
#680000
1'
0$
0(
1?
0B
0A
0D
1@
1-
0*
#690000
1(
1A
1C
1.
#700000
1$
0(
1B
0A
#710000
1(
1A
1D
0C
0.
1*
#720000
1#
0'
0$
0(
1=
0?
0B
0A
0D
0*
#730000
1(
1A
1C
1.
#740000
1$
0(
1B
0A
#750000
1(
1A
1D
0C
0.
1*
#760000
1'
0$
0(
1?
0B
0A
0D
1C
0@
0-
1.
0*
#770000
1(
1A
1D
0C
0.
1*
#780000
1$
0(
1B
0A
#790000
1(
1A
1C
1.
#800000
1&
0#
0'
0$
0(
1;
0=
0?
0B
0A
0D
0C
1<
1,
0.
0*
#810000
1(
1A
1C
1.
#820000
1$
0(
1B
0A
#830000
1(
1A
1D
0C
0.
1*
#840000
1'
0$
0(
1?
0B
0A
0D
1@
1-
0*
#850000
1(
1A
1C
1.
#860000
1$
0(
1B
0A
#870000
1(
1A
1D
0C
0.
1*
#880000
1#
0'
0$
0(
1=
0?
0B
0A
0D
0*
#890000
1(
1A
1C
1.
#900000
1$
0(
1B
0A
#910000
1(
1A
1D
0C
0.
1*
#920000
1'
0$
0(
1?
0B
0A
0D
1C
0@
0-
1.
0*
#930000
1(
1A
1D
0C
0.
1*
#940000
1$
0(
1B
0A
#950000
1(
1A
1C
1.
#960000
1"
0&
0#
0'
0$
0(
1:
0;
0=
0?
0B
0A
0D
0C
0.
0*
#970000
1(
1A
1C
1.
#980000
1$
0(
1B
0A
#990000
1(
1A
1D
0C
0.
1*
