lab1/simulation/qsim/first_prj.msim.vcd
$comment
	File created using the following command:
		vcd file first_prj.msim.vcd -direction
$end
$date
	Thu Jan 19 23:11:03 2017
$end
$version
	ModelSim Version 10.4d
$end
$timescale
	1ps
$end

$scope module first_prj_vlg_vec_tst $end
$var reg 1 ! x1 $end
$var reg 1 " x2 $end
$var wire 1 # y $end

$scope module i1 $end
$var wire 1 $ gnd $end
$var wire 1 % vcc $end
$var wire 1 & unknown $end
$var tri1 1 ' devclrn $end
$var tri1 1 ( devpor $end
$var tri1 1 ) devoe $end
$var wire 1 * ~QUARTUS_CREATED_GND~I_combout $end
$var wire 1 + ~QUARTUS_CREATED_UNVM~~busy $end
$var wire 1 , ~QUARTUS_CREATED_ADC1~~eoc $end
$var wire 1 - y~output_o $end
$var wire 1 . x1~input_o $end
$var wire 1 / x2~input_o $end
$var wire 1 0 inst2~combout $end
$upscope $end
$upscope $end
$enddefinitions $end
#0
$dumpvars
0!
0"
1#
0$
1%
x&
1'
1(
1)
0*
z+
z,
1-
0.
0/
00
$end
#5000
1!
1.
10
0-
0#
#10000
1"
0!
0.
1/
#15000
1!
1.
#20000
0"
0!
0.
0/
00
1-
1#
#25000
1!
1.
10
0-
0#
#30000
1"
0!
0.
1/
#35000
1!
1.
#40000
0"
0!
0.
0/
00
1-
1#
#45000
1!
1.
10
0-
0#
#50000
1"
0!
0.
1/
#55000
1!
1.
#60000
0"
0!
0.
0/
00
1-
1#
#65000
1!
1.
10
0-
0#
#70000
1"
0!
0.
1/
#75000
1!
1.
#80000
0"
0!
0.
0/
00
1-
1#
#85000
1!
1.
10
0-
0#
#90000
1"
0!
0.
1/
#95000
1!
1.
#100000
0"
0!
0.
0/
00
1-
1#
#105000
1!
1.
10
0-
0#
#110000
1"
0!
0.
1/
#115000
1!
1.
#120000
0"
0!
0.
0/
00
1-
1#
#125000
1!
1.
10
0-
0#
#130000
1"
0!
0.
1/
#135000
1!
1.
#140000
0"
0!
0.
0/
00
1-
1#
#145000
1!
1.
10
0-
0#
#150000
1"
0!
0.
1/
#155000
1!
1.
#160000
0"
0!
0.
0/
00
1-
1#
#165000
1!
1.
10
0-
0#
#170000
1"
0!
0.
1/
#175000
1!
1.
#180000
0"
0!
0.
0/
00
1-
1#
#185000
1!
1.
10
0-
0#
#190000
1"
0!
0.
1/
#195000
1!
1.
#200000
0"
0!
0.
0/
00
1-
1#
#205000
1!
1.
10
0-
0#
#210000
1"
0!
0.
1/
#215000
1!
1.
#220000
0"
0!
0.
0/
00
1-
1#
#225000
1!
1.
10
0-
0#
#230000
1"
0!
0.
1/
#235000
1!
1.
#240000
0"
0!
0.
0/
00
1-
1#
#245000
1!
1.
10
0-
0#
#250000
1"
0!
0.
1/
#255000
1!
1.
#260000
0"
0!
0.
0/
00
1-
1#
#265000
1!
1.
10
0-
0#
#270000
1"
0!
0.
1/
#275000
1!
1.
#280000
0"
0!
0.
0/
00
1-
1#
#285000
1!
1.
10
0-
0#
#290000
1"
0!
0.
1/
#295000
1!
1.
#300000
0"
0!
0.
0/
00
1-
1#
#305000
1!
1.
10
0-
0#
#310000
1"
0!
0.
1/
#315000
1!
1.
#320000
0"
0!
0.
0/
00
1-
1#
#325000
1!
1.
10
0-
0#
#330000
1"
0!
0.
1/
#335000
1!
1.
#340000
0"
0!
0.
0/
00
1-
1#
#345000
1!
1.
10
0-
0#
#350000
1"
0!
0.
1/
#355000
1!
1.
#360000
0"
0!
0.
0/
00
1-
1#
#365000
1!
1.
10
0-
0#
#370000
1"
0!
0.
1/
#375000
1!
1.
#380000
0"
0!
0.
0/
00
1-
1#
#385000
1!
1.
10
0-
0#
#390000
1"
0!
0.
1/
#395000
1!
1.
#400000
0"
0!
0.
0/
00
1-
1#
#405000
1!
1.
10
0-
0#
#410000
1"
0!
0.
1/
#415000
1!
1.
#420000
0"
0!
0.
0/
00
1-
1#
#425000
1!
1.
10
0-
0#
#430000
1"
0!
0.
1/
#435000
1!
1.
#440000
0"
0!
0.
0/
00
1-
1#
#445000
1!
1.
10
0-
0#
#450000
1"
0!
0.
1/
#455000
1!
1.
#460000
0"
0!
0.
0/
00
1-
1#
#465000
1!
1.
10
0-
0#
#470000
1"
0!
0.
1/
#475000
1!
1.
#480000
0"
0!
0.
0/
00
1-
1#
#485000
1!
1.
10
0-
0#
#490000
1"
0!
0.
1/
#495000
1!
1.
#500000
0"
0!
0.
0/
00
1-
1#
#505000
1!
1.
10
0-
0#
#510000
1"
0!
0.
1/
#515000
1!
1.
#520000
0"
0!
0.
0/
00
1-
1#
#525000
1!
1.
10
0-
0#
#530000
1"
0!
0.
1/
#535000
1!
1.
#540000
0"
0!
0.
0/
00
1-
1#
#545000
1!
1.
10
0-
0#
#550000
1"
0!
0.
1/
#555000
1!
1.
#560000
0"
0!
0.
0/
00
1-
1#
#565000
1!
1.
10
0-
0#
#570000
1"
0!
0.
1/
#575000
1!
1.
#580000
0"
0!
0.
0/
00
1-
1#
#585000
1!
1.
10
0-
0#
#590000
1"
0!
0.
1/
#595000
1!
1.
#600000
0"
0!
0.
0/
00
1-
1#
#605000
1!
1.
10
0-
0#
#610000
1"
0!
0.
1/
#615000
1!
1.
#620000
0"
0!
0.
0/
00
1-
1#
#625000
1!
1.
10
0-
0#
#630000
1"
0!
0.
1/
#635000
1!
1.
#640000
0"
0!
0.
0/
00
1-
1#
#645000
1!
1.
10
0-
0#
#650000
1"
0!
0.
1/
#655000
1!
1.
#660000
0"
0!
0.
0/
00
1-
1#
#665000
1!
1.
10
0-
0#
#670000
1"
0!
0.
1/
#675000
1!
1.
#680000
0"
0!
0.
0/
00
1-
1#
#685000
1!
1.
10
0-
0#
#690000
1"
0!
0.
1/
#695000
1!
1.
#700000
0"
0!
0.
0/
00
1-
1#
#705000
1!
1.
10
0-
0#
#710000
1"
0!
0.
1/
#715000
1!
1.
#720000
0"
0!
0.
0/
00
1-
1#
#725000
1!
1.
10
0-
0#
#730000
1"
0!
0.
1/
#735000
1!
1.
#740000
0"
0!
0.
0/
00
1-
1#
#745000
1!
1.
10
0-
0#
#750000
1"
0!
0.
1/
#755000
1!
1.
#760000
0"
0!
0.
0/
00
1-
1#
#765000
1!
1.
10
0-
0#
#770000
1"
0!
0.
1/
#775000
1!
1.
#780000
0"
0!
0.
0/
00
1-
1#
#785000
1!
1.
10
0-
0#
#790000
1"
0!
0.
1/
#795000
1!
1.
#800000
0"
0!
0.
0/
00
1-
1#
#805000
1!
1.
10
0-
0#
#810000
1"
0!
0.
1/
#815000
1!
1.
#820000
0"
0!
0.
0/
00
1-
1#
#825000
1!
1.
10
0-
0#
#830000
1"
0!
0.
1/
#835000
1!
1.
#840000
0"
0!
0.
0/
00
1-
1#
#845000
1!
1.
10
0-
0#
#850000
1"
0!
0.
1/
#855000
1!
1.
#860000
0"
0!
0.
0/
00
1-
1#
#865000
1!
1.
10
0-
0#
#870000
1"
0!
0.
1/
#875000
1!
1.
#880000
0"
0!
0.
0/
00
1-
1#
#885000
1!
1.
10
0-
0#
#890000
1"
0!
0.
1/
#895000
1!
1.
#900000
0"
0!
0.
0/
00
1-
1#
#905000
1!
1.
10
0-
0#
#910000
1"
0!
0.
1/
#915000
1!
1.
#920000
0"
0!
0.
0/
00
1-
1#
#925000
1!
1.
10
0-
0#
#930000
1"
0!
0.
1/
#935000
1!
1.
#940000
0"
0!
0.
0/
00
1-
1#
#945000
1!
1.
10
0-
0#
#950000
1"
0!
0.
1/
#955000
1!
1.
#960000
0"
0!
0.
0/
00
1-
1#
#965000
1!
1.
10
0-
0#
#970000
1"
0!
0.
1/
#975000
1!
1.
#980000
0"
0!
0.
0/
00
1-
1#
#985000
1!
1.
10
0-
0#
#990000
1"
0!
0.
1/
#995000
1!
1.
