lab4_two-digit_sum/simulation/qsim/two_digit_sum.msim.vcd
$comment
	File created using the following command:
		vcd file two_digit_sum.msim.vcd -direction
$end
$date
	Mon Mar 20 12:01:17 2017
$end
$version
	ModelSim Version 10.4d
$end
$timescale
	1ps
$end

$scope module two_digit_sum_vlg_vec_tst $end
$var reg 1 ! a0 $end
$var reg 1 " a1 $end
$var reg 1 # b0 $end
$var reg 1 $ b1 $end
$var reg 1 % p $end
$var wire 1 & p1 $end
$var wire 1 ' s0 $end
$var wire 1 ( s1 $end

$scope module i1 $end
$var wire 1 ) gnd $end
$var wire 1 * vcc $end
$var wire 1 + unknown $end
$var tri1 1 , devclrn $end
$var tri1 1 - devpor $end
$var tri1 1 . devoe $end
$var wire 1 / ~QUARTUS_CREATED_GND~I_combout $end
$var wire 1 0 p~input_o $end
$var wire 1 1 a0~input_o $end
$var wire 1 2 b0~input_o $end
$var wire 1 3 inst|inst~combout $end
$var wire 1 4 a1~input_o $end
$var wire 1 5 b1~input_o $end
$var wire 1 6 inst1|inst~combout $end
$var wire 1 7 inst1|inst4~combout $end
$upscope $end
$upscope $end
$enddefinitions $end
#0
$dumpvars
0!
0"
0#
0$
0%
0&
0'
0(
0)
1*
x+
1,
1-
1.
0/
00
01
02
03
04
05
06
07
$end
#5000
1!
11
13
1'
#10000
1"
0!
14
01
16
03
0'
1(
#15000
1!
11
13
1'
#20000
1#
0"
0!
12
04
01
06
0(
#25000
1!
11
16
03
0'
1(
#30000
1"
0!
14
01
13
1'
#35000
1!
11
17
06
03
0'
0(
1&
#40000
1$
0#
0"
0!
15
02
04
01
07
16
1(
0&
#45000
1!
11
13
1'
#50000
1"
0!
14
01
17
06
03
0'
0(
1&
#55000
1!
11
13
1'
#60000
1#
0"
0!
12
04
01
07
16
1(
0&
#65000
1!
11
17
06
03
0'
0(
1&
#70000
1"
0!
14
01
13
1'
#75000
1!
11
16
03
0'
1(
#80000
1%
0$
0#
0"
0!
10
05
02
04
01
07
06
13
1'
0(
0&
#85000
1!
11
16
03
0'
1(
#90000
1"
0!
14
01
13
1'
#95000
1!
11
17
06
03
0'
0(
1&
#100000
1#
0"
0!
12
04
01
07
16
1(
0&
#105000
1!
11
13
1'
#110000
1"
0!
14
01
17
06
03
0'
0(
1&
#115000
1!
11
13
1'
#120000
1$
0#
0"
0!
15
02
04
01
07
16
1(
0&
#125000
1!
11
17
06
03
0'
0(
1&
#130000
1"
0!
14
01
13
1'
#135000
1!
11
16
03
0'
1(
#140000
1#
0"
0!
12
04
01
06
0(
#145000
1!
11
13
1'
#150000
1"
0!
14
01
16
03
0'
1(
#155000
1!
11
13
1'
#160000
0%
0$
0#
0"
0!
00
05
02
04
01
07
06
03
0'
0(
0&
#165000
1!
11
13
1'
#170000
1"
0!
14
01
16
03
0'
1(
#175000
1!
11
13
1'
#180000
1#
0"
0!
12
04
01
06
0(
#185000
1!
11
16
03
0'
1(
#190000
1"
0!
14
01
13
1'
#195000
1!
11
17
06
03
0'
0(
1&
#200000
1$
0#
0"
0!
15
02
04
01
07
16
1(
0&
#205000
1!
11
13
1'
#210000
1"
0!
14
01
17
06
03
0'
0(
1&
#215000
1!
11
13
1'
#220000
1#
0"
0!
12
04
01
07
16
1(
0&
#225000
1!
11
17
06
03
0'
0(
1&
#230000
1"
0!
14
01
13
1'
#235000
1!
11
16
03
0'
1(
#240000
1%
0$
0#
0"
0!
10
05
02
04
01
07
06
13
1'
0(
0&
#245000
1!
11
16
03
0'
1(
#250000
1"
0!
14
01
13
1'
#255000
1!
11
17
06
03
0'
0(
1&
#260000
1#
0"
0!
12
04
01
07
16
1(
0&
#265000
1!
11
13
1'
#270000
1"
0!
14
01
17
06
03
0'
0(
1&
#275000
1!
11
13
1'
#280000
1$
0#
0"
0!
15
02
04
01
07
16
1(
0&
#285000
1!
11
17
06
03
0'
0(
1&
#290000
1"
0!
14
01
13
1'
#295000
1!
11
16
03
0'
1(
#300000
1#
0"
0!
12
04
01
06
0(
#305000
1!
11
13
1'
#310000
1"
0!
14
01
16
03
0'
1(
#315000
1!
11
13
1'
#320000
0%
0$
0#
0"
0!
00
05
02
04
01
07
06
03
0'
0(
0&
#325000
1!
11
13
1'
#330000
1"
0!
14
01
16
03
0'
1(
#335000
1!
11
13
1'
#340000
1#
0"
0!
12
04
01
06
0(
#345000
1!
11
16
03
0'
1(
#350000
1"
0!
14
01
13
1'
#355000
1!
11
17
06
03
0'
0(
1&
#360000
1$
0#
0"
0!
15
02
04
01
07
16
1(
0&
#365000
1!
11
13
1'
#370000
1"
0!
14
01
17
06
03
0'
0(
1&
#375000
1!
11
13
1'
#380000
1#
0"
0!
12
04
01
07
16
1(
0&
#385000
1!
11
17
06
03
0'
0(
1&
#390000
1"
0!
14
01
13
1'
#395000
1!
11
16
03
0'
1(
#400000
1%
0$
0#
0"
0!
10
05
02
04
01
07
06
13
1'
0(
0&
#405000
1!
11
16
03
0'
1(
#410000
1"
0!
14
01
13
1'
#415000
1!
11
17
06
03
0'
0(
1&
#420000
1#
0"
0!
12
04
01
07
16
1(
0&
#425000
1!
11
13
1'
#430000
1"
0!
14
01
17
06
03
0'
0(
1&
#435000
1!
11
13
1'
#440000
1$
0#
0"
0!
15
02
04
01
07
16
1(
0&
#445000
1!
11
17
06
03
0'
0(
1&
#450000
1"
0!
14
01
13
1'
#455000
1!
11
16
03
0'
1(
#460000
1#
0"
0!
12
04
01
06
0(
#465000
1!
11
13
1'
#470000
1"
0!
14
01
16
03
0'
1(
#475000
1!
11
13
1'
#480000
0%
0$
0#
0"
0!
00
05
02
04
01
07
06
03
0'
0(
0&
#485000
1!
11
13
1'
#490000
1"
0!
14
01
16
03
0'
1(
#495000
1!
11
13
1'
#500000
1#
0"
0!
12
04
01
06
0(
#505000
1!
11
16
03
0'
1(
#510000
1"
0!
14
01
13
1'
#515000
1!
11
17
06
03
0'
0(
1&
#520000
1$
0#
0"
0!
15
02
04
01
07
16
1(
0&
#525000
1!
11
13
1'
#530000
1"
0!
14
01
17
06
03
0'
0(
1&
#535000
1!
11
13
1'
#540000
1#
0"
0!
12
04
01
07
16
1(
0&
#545000
1!
11
17
06
03
0'
0(
1&
#550000
1"
0!
14
01
13
1'
#555000
1!
11
16
03
0'
1(
#560000
1%
0$
0#
0"
0!
10
05
02
04
01
07
06
13
1'
0(
0&
#565000
1!
11
16
03
0'
1(
#570000
1"
0!
14
01
13
1'
#575000
1!
11
17
06
03
0'
0(
1&
#580000
1#
0"
0!
12
04
01
07
16
1(
0&
#585000
1!
11
13
1'
#590000
1"
0!
14
01
17
06
03
0'
0(
1&
#595000
1!
11
13
1'
#600000
1$
0#
0"
0!
15
02
04
01
07
16
1(
0&
#605000
1!
11
17
06
03
0'
0(
1&
#610000
1"
0!
14
01
13
1'
#615000
1!
11
16
03
0'
1(
#620000
1#
0"
0!
12
04
01
06
0(
#625000
1!
11
13
1'
#630000
1"
0!
14
01
16
03
0'
1(
#635000
1!
11
13
1'
#640000
0%
0$
0#
0"
0!
00
05
02
04
01
07
06
03
0'
0(
0&
#645000
1!
11
13
1'
#650000
1"
0!
14
01
16
03
0'
1(
#655000
1!
11
13
1'
#660000
1#
0"
0!
12
04
01
06
0(
#665000
1!
11
16
03
0'
1(
#670000
1"
0!
14
01
13
1'
#675000
1!
11
17
06
03
0'
0(
1&
#680000
1$
0#
0"
0!
15
02
04
01
07
16
1(
0&
#685000
1!
11
13
1'
#690000
1"
0!
14
01
17
06
03
0'
0(
1&
#695000
1!
11
13
1'
#700000
1#
0"
0!
12
04
01
07
16
1(
0&
#705000
1!
11
17
06
03
0'
0(
1&
#710000
1"
0!
14
01
13
1'
#715000
1!
11
16
03
0'
1(
#720000
1%
0$
0#
0"
0!
10
05
02
04
01
07
06
13
1'
0(
0&
#725000
1!
11
16
03
0'
1(
#730000
1"
0!
14
01
13
1'
#735000
1!
11
17
06
03
0'
0(
1&
#740000
1#
0"
0!
12
04
01
07
16
1(
0&
#745000
1!
11
13
1'
#750000
1"
0!
14
01
17
06
03
0'
0(
1&
#755000
1!
11
13
1'
#760000
1$
0#
0"
0!
15
02
04
01
07
16
1(
0&
#765000
1!
11
17
06
03
0'
0(
1&
#770000
1"
0!
14
01
13
1'
#775000
1!
11
16
03
0'
1(
#780000
1#
0"
0!
12
04
01
06
0(
#785000
1!
11
13
1'
#790000
1"
0!
14
01
16
03
0'
1(
#795000
1!
11
13
1'
#800000
0%
0$
0#
0"
0!
00
05
02
04
01
07
06
03
0'
0(
0&
#805000
1!
11
13
1'
#810000
1"
0!
14
01
16
03
0'
1(
#815000
1!
11
13
1'
#820000
1#
0"
0!
12
04
01
06
0(
#825000
1!
11
16
03
0'
1(
#830000
1"
0!
14
01
13
1'
#835000
1!
11
17
06
03
0'
0(
1&
#840000
1$
0#
0"
0!
15
02
04
01
07
16
1(
0&
#845000
1!
11
13
1'
#850000
1"
0!
14
01
17
06
03
0'
0(
1&
#855000
1!
11
13
1'
#860000
1#
0"
0!
12
04
01
07
16
1(
0&
#865000
1!
11
17
06
03
0'
0(
1&
#870000
1"
0!
14
01
13
1'
#875000
1!
11
16
03
0'
1(
#880000
1%
0$
0#
0"
0!
10
05
02
04
01
07
06
13
1'
0(
0&
#885000
1!
11
16
03
0'
1(
#890000
1"
0!
14
01
13
1'
#895000
1!
11
17
06
03
0'
0(
1&
#900000
1#
0"
0!
12
04
01
07
16
1(
0&
#905000
1!
11
13
1'
#910000
1"
0!
14
01
17
06
03
0'
0(
1&
#915000
1!
11
13
1'
#920000
1$
0#
0"
0!
15
02
04
01
07
16
1(
0&
#925000
1!
11
17
06
03
0'
0(
1&
#930000
1"
0!
14
01
13
1'
#935000
1!
11
16
03
0'
1(
#940000
1#
0"
0!
12
04
01
06
0(
#945000
1!
11
13
1'
#950000
1"
0!
14
01
16
03
0'
1(
#955000
1!
11
13
1'
#960000
0%
0$
0#
0"
0!
00
05
02
04
01
07
06
03
0'
0(
0&
#965000
1!
11
13
1'
#970000
1"
0!
14
01
16
03
0'
1(
#975000
1!
11
13
1'
#980000
1#
0"
0!
12
04
01
06
0(
#985000
1!
11
16
03
0'
1(
#990000
1"
0!
14
01
13
1'
#995000
1!
11
17
06
03
0'
0(
1&
